TLB/myresult.txt
TLB[          0] = 001100000000
TLB[          1] = 001000000000
TLB[          2] = 000100000000
TLB[          3] = 000000000000
VCD info: dumpfile vm_test.vcd opened for output.
virtual_addr = 00010010001000
whether hit xxxx
after hit -- physical_addr = xx10001000
virtual_addr = 00010010001000
whether hit 0000
after hit -- physical_addr = xx10001000
virtual_addr = 00010010001000
TLB miss!
pass VPN to page_table now!
enter page_table modification
VPN : 000100
Hit : 0000
write to TLB page_table[ 4] = 10110
after read from page_table, TLB[          0] = 001100010010
after read from page_table -- physical_addr = 0000000000
virtual_addr = 00010010001000
TLB miss!
pass VPN to page_table now!
physical address in cache = 1010001000
address_prepared = 0
after read from page_table -- physical_addr = 1010001000
physical address in cache = 1010001000
address_prepared = 1
enter cache modification -- address prepared
enter cache modification -- write
enter cache modification -- write -- miss
enter cache modification -- write -- miss -- LRU[]=0
Request  0: 
page fault: 0
data read posedge: 00000000
contents in TLB: 
block 00: tag:  4, valid: 1, dirty: 0, reference: 11, PPN: 2
block 01: tag:  0, valid: 0, dirty: 0, reference: 10, PPN: 0
block 10: tag:  0, valid: 0, dirty: 0, reference: 01, PPN: 0
block 11: tag:  0, valid: 0, dirty: 0, reference: 00, PPN: 0
contents in cache: 
block 00: tag: 00000, valid: 0, dirty: 0, word0: 00000000, word1: 00000000, word2: 00000000, word3: 00000000
block 01: tag: 00000, valid: 0, dirty: 0, word0: 00000000, word1: 00000000, word2: 00000000, word3: 00000000
block 10: tag: 00000, valid: 0, dirty: 0, word0: 00000000, word1: 00000000, word2: 00000000, word3: 00000000
block 11: tag: 00000, valid: 0, dirty: 0, word0: 00000000, word1: 00000000, word2: 00000000, word3: 00000000
TLB P_addr_PT_out: 00
TLB V_addr_PT_out: 000100
TLB_hit: 1
TLB.TLB[0]: 101100010010
TLB.TLB[1]: 001000000000
TLB.TLB[2]: 000100000000
TLB.TLB[3]: 000000000000
P_addr_PT_in: 10
TLB.VPN: 000100
Virtual_address: 00010010001000
request_num: 00000
enter read data from main memory1
enter read data from main memory1
enter read data from main memory1
Request  0: 
page fault: 0
data read posedge: 00000000
contents in TLB: 
block 00: tag:  4, valid: 1, dirty: 0, reference: 11, PPN: 2
block 01: tag:  0, valid: 0, dirty: 0, reference: 10, PPN: 0
block 10: tag:  0, valid: 0, dirty: 0, reference: 01, PPN: 0
block 11: tag:  0, valid: 0, dirty: 0, reference: 00, PPN: 0
contents in cache: 
block 00: tag: 00000, valid: 0, dirty: 0, word0: 0000028d, word1: 00000285, word2: 00000000, word3: 00000000
block 01: tag: 00000, valid: 0, dirty: 0, word0: 00000000, word1: 00000000, word2: 00000000, word3: 00000000
block 10: tag: 00000, valid: 0, dirty: 0, word0: 00000000, word1: 00000000, word2: 00000000, word3: 00000000
block 11: tag: 00000, valid: 0, dirty: 0, word0: 00000000, word1: 00000000, word2: 00000000, word3: 00000000
TLB P_addr_PT_out: 00
TLB V_addr_PT_out: 000100
TLB_hit: 1
TLB.TLB[0]: 101100010010
TLB.TLB[1]: 001000000000
TLB.TLB[2]: 000100000000
TLB.TLB[3]: 000000000000
P_addr_PT_in: 10
TLB.VPN: 000100
Virtual_address: 00010010001000
request_num: 00000
enter read data from main memory1
1 modify tag of set A, tag = 10100
physical address in cache = 1010001000
address_prepared = 1
enter cache modification -- address prepared
enter cache modification -- write
2 modify tag of set A, tag = 10100
Request  0: 
page fault: 0
data read posedge: 00000001
contents in TLB: 
block 00: tag:  4, valid: 1, dirty: 0, reference: 11, PPN: 2
block 01: tag:  0, valid: 0, dirty: 0, reference: 10, PPN: 0
block 10: tag:  0, valid: 0, dirty: 0, reference: 01, PPN: 0
block 11: tag:  0, valid: 0, dirty: 0, reference: 00, PPN: 0
contents in cache: 
block 00: tag: 10100, valid: 1, dirty: 1, word0: 0000028d, word1: 00000285, word2: 00000001, word3: 00000281
block 01: tag: 00000, valid: 0, dirty: 0, word0: 00000000, word1: 00000000, word2: 00000000, word3: 00000000
block 10: tag: 00000, valid: 0, dirty: 0, word0: 00000000, word1: 00000000, word2: 00000000, word3: 00000000
block 11: tag: 00000, valid: 0, dirty: 0, word0: 00000000, word1: 00000000, word2: 00000000, word3: 00000000
TLB P_addr_PT_out: 00
TLB V_addr_PT_out: 000100
TLB_hit: 1
TLB.TLB[0]: 101100010010
TLB.TLB[1]: 001000000000
TLB.TLB[2]: 000100000000
TLB.TLB[3]: 000000000000
P_addr_PT_in: 10
TLB.VPN: 000100
Virtual_address: 00010010001000
request_num: 00000
virtual_addr = 00000010011100
whether hit 0001
after hit -- physical_addr = 1010011100
virtual_addr = 00000010011100
whether hit 0000
after hit -- physical_addr = 1010011100
virtual_addr = 00000010011100
TLB miss!
pass VPN to page_table now!
enter page_table modification
write to TLB page_table[ 0] = 10101
after read from page_table, TLB[          1] = 001100000001
after read from page_table -- physical_addr = 1010011100
virtual_addr = 00000010011100
TLB miss!
pass VPN to page_table now!
physical address in cache = 0110011100
address_prepared = 0
after read from page_table -- physical_addr = 0110011100
physical address in cache = 0110011100
address_prepared = 1
enter cache modification -- address prepared
enter cache modification -- write
enter cache modification -- write -- miss
enter cache modification -- write -- miss -- LRU[]=0
Request  1: 
page fault: 0
data read posedge: ffffff81
contents in TLB: 
block 00: tag:  4, valid: 1, dirty: 0, reference: 00, PPN: 2
block 01: tag:  0, valid: 1, dirty: 0, reference: 11, PPN: 1
block 10: tag:  0, valid: 0, dirty: 0, reference: 10, PPN: 0
block 11: tag:  0, valid: 0, dirty: 0, reference: 01, PPN: 0
contents in cache: 
block 00: tag: 10100, valid: 1, dirty: 1, word0: 0000028d, word1: 00000285, word2: 00000001, word3: 00000281
block 01: tag: 00000, valid: 0, dirty: 0, word0: 00000000, word1: 00000000, word2: 00000000, word3: 00000000
block 10: tag: 00000, valid: 0, dirty: 0, word0: 00000000, word1: 00000000, word2: 00000000, word3: 00000000
block 11: tag: 00000, valid: 0, dirty: 0, word0: 00000000, word1: 00000000, word2: 00000000, word3: 00000000
TLB P_addr_PT_out: 00
TLB V_addr_PT_out: 000000
TLB_hit: 1
TLB.TLB[0]: 100000010010
TLB.TLB[1]: 101100000001
TLB.TLB[2]: 001000000000
TLB.TLB[3]: 000100000000
P_addr_PT_in: 01
TLB.VPN: 000000
Virtual_address: 00000010011100
request_num: 00001
enter read data from main memory1
enter read data from main memory1
enter read data from main memory1
Request  1: 
page fault: 0
data read posedge: ffffff81
contents in TLB: 
block 00: tag:  4, valid: 1, dirty: 0, reference: 00, PPN: 2
block 01: tag:  0, valid: 1, dirty: 0, reference: 11, PPN: 1
block 10: tag:  0, valid: 0, dirty: 0, reference: 10, PPN: 0
block 11: tag:  0, valid: 0, dirty: 0, reference: 01, PPN: 0
contents in cache: 
block 00: tag: 10100, valid: 1, dirty: 1, word0: 0000028d, word1: 00000285, word2: 00000001, word3: 00000281
block 01: tag: 00000, valid: 0, dirty: 0, word0: 00000191, word1: 00000199, word2: 00000195, word3: 00000000
block 10: tag: 00000, valid: 0, dirty: 0, word0: 00000000, word1: 00000000, word2: 00000000, word3: 00000000
block 11: tag: 00000, valid: 0, dirty: 0, word0: 00000000, word1: 00000000, word2: 00000000, word3: 00000000
TLB P_addr_PT_out: 00
TLB V_addr_PT_out: 000000
TLB_hit: 1
TLB.TLB[0]: 100000010010
TLB.TLB[1]: 101100000001
TLB.TLB[2]: 001000000000
TLB.TLB[3]: 000100000000
P_addr_PT_in: 01
TLB.VPN: 000000
Virtual_address: 00000010011100
request_num: 00001
enter read data from main memory1
1 modify tag of set A, tag = 01100
physical address in cache = 0110011100
address_prepared = 1
enter cache modification -- address prepared
enter cache modification -- write
2 modify tag of set A, tag = 01100
Request  1: 
page fault: 0
data read posedge: ffffffac
contents in TLB: 
block 00: tag:  4, valid: 1, dirty: 0, reference: 00, PPN: 2
block 01: tag:  0, valid: 1, dirty: 0, reference: 11, PPN: 1
block 10: tag:  0, valid: 0, dirty: 0, reference: 10, PPN: 0
block 11: tag:  0, valid: 0, dirty: 0, reference: 01, PPN: 0
contents in cache: 
block 00: tag: 10100, valid: 1, dirty: 1, word0: 0000028d, word1: 00000285, word2: 00000001, word3: 00000281
block 01: tag: 01100, valid: 1, dirty: 1, word0: 00000191, word1: 00000199, word2: 00000195, word3: 00000dac
block 10: tag: 00000, valid: 0, dirty: 0, word0: 00000000, word1: 00000000, word2: 00000000, word3: 00000000
block 11: tag: 00000, valid: 0, dirty: 0, word0: 00000000, word1: 00000000, word2: 00000000, word3: 00000000
TLB P_addr_PT_out: 00
TLB V_addr_PT_out: 000000
TLB_hit: 1
TLB.TLB[0]: 100000010010
TLB.TLB[1]: 101100000001
TLB.TLB[2]: 001000000000
TLB.TLB[3]: 000100000000
P_addr_PT_in: 01
TLB.VPN: 000000
Virtual_address: 00000010011100
request_num: 00001
virtual_addr = 00000110011000
whether hit 0010
after hit -- physical_addr = 0110011000
virtual_addr = 00000110011000
whether hit 0000
after hit -- physical_addr = 0110011000
virtual_addr = 00000110011000
TLB miss!
pass VPN to page_table now!
enter page_table modification
write to TLB page_table[ 1] = 10111
after read from page_table, TLB[          2] = 001100000111
after read from page_table -- physical_addr = 0110011000
virtual_addr = 00000110011000
TLB miss!
pass VPN to page_table now!
physical address in cache = 1110011000
address_prepared = 0
after read from page_table -- physical_addr = 1110011000
physical address in cache = 1110011000
address_prepared = 1
enter cache modification -- address prepared
enter cache modification -- write
enter cache modification -- write -- miss
Request  2: 
page fault: 0
data read posedge: ffffff95
contents in TLB: 
block 00: tag:  4, valid: 1, dirty: 0, reference: 01, PPN: 2
block 01: tag:  0, valid: 1, dirty: 0, reference: 00, PPN: 1
block 10: tag:  1, valid: 1, dirty: 0, reference: 11, PPN: 3
block 11: tag:  0, valid: 0, dirty: 0, reference: 10, PPN: 0
contents in cache: 
block 00: tag: 10100, valid: 1, dirty: 1, word0: 0000028d, word1: 00000285, word2: 00000001, word3: 00000281
block 01: tag: 01100, valid: 1, dirty: 1, word0: 00000191, word1: 00000199, word2: 00000195, word3: 00000dac
block 10: tag: 00000, valid: 0, dirty: 0, word0: 00000000, word1: 00000000, word2: 00000000, word3: 00000000
block 11: tag: 00000, valid: 0, dirty: 0, word0: 00000000, word1: 00000000, word2: 00000000, word3: 00000000
TLB P_addr_PT_out: 00
TLB V_addr_PT_out: 000001
TLB_hit: 1
TLB.TLB[0]: 100100010010
TLB.TLB[1]: 100000000001
TLB.TLB[2]: 101100000111
TLB.TLB[3]: 001000000000
P_addr_PT_in: 11
TLB.VPN: 000001
Virtual_address: 00000110011000
request_num: 00010
Request  2: 
page fault: 0
data read posedge: ffffff95
contents in TLB: 
block 00: tag:  4, valid: 1, dirty: 0, reference: 01, PPN: 2
block 01: tag:  0, valid: 1, dirty: 0, reference: 00, PPN: 1
block 10: tag:  1, valid: 1, dirty: 0, reference: 11, PPN: 3
block 11: tag:  0, valid: 0, dirty: 0, reference: 10, PPN: 0
contents in cache: 
block 00: tag: 10100, valid: 1, dirty: 1, word0: 0000028d, word1: 00000285, word2: 00000001, word3: 00000281
block 01: tag: 01100, valid: 1, dirty: 1, word0: 00000191, word1: 00000199, word2: 00000195, word3: 00000dac
block 10: tag: 00000, valid: 0, dirty: 0, word0: 00000000, word1: 00000000, word2: 00000000, word3: 00000000
block 11: tag: 00000, valid: 0, dirty: 0, word0: 0000039d, word1: 00000395, word2: 00000000, word3: 00000000
TLB P_addr_PT_out: 00
TLB V_addr_PT_out: 000001
TLB_hit: 1
TLB.TLB[0]: 100100010010
TLB.TLB[1]: 100000000001
TLB.TLB[2]: 101100000111
TLB.TLB[3]: 001000000000
P_addr_PT_in: 11
TLB.VPN: 000001
Virtual_address: 00000110011000
request_num: 00010
physical address in cache = 1110011000
address_prepared = 1
enter cache modification -- address prepared
enter cache modification -- write
Request  2: 
page fault: 0
data read posedge: ffffffac
contents in TLB: 
block 00: tag:  4, valid: 1, dirty: 0, reference: 01, PPN: 2
block 01: tag:  0, valid: 1, dirty: 0, reference: 00, PPN: 1
block 10: tag:  1, valid: 1, dirty: 0, reference: 11, PPN: 3
block 11: tag:  0, valid: 0, dirty: 0, reference: 10, PPN: 0
contents in cache: 
block 00: tag: 10100, valid: 1, dirty: 1, word0: 0000028d, word1: 00000285, word2: 00000001, word3: 00000281
block 01: tag: 01100, valid: 1, dirty: 1, word0: 00000191, word1: 00000199, word2: 00000195, word3: 00000dac
block 10: tag: 00000, valid: 0, dirty: 0, word0: 00000000, word1: 00000000, word2: 00000000, word3: 00000000
block 11: tag: 11100, valid: 1, dirty: 1, word0: 0000039d, word1: 00000395, word2: 00000fac, word3: 00000391
TLB P_addr_PT_out: 00
TLB V_addr_PT_out: 000001
TLB_hit: 1
TLB.TLB[0]: 100100010010
TLB.TLB[1]: 100000000001
TLB.TLB[2]: 101100000111
TLB.TLB[3]: 001000000000
P_addr_PT_in: 11
TLB.VPN: 000001
Virtual_address: 00000110011000
request_num: 00010
virtual_addr = 00000010010101
whether hit 0100
after hit -- physical_addr = 1110010101
virtual_addr = 00000010010101
whether hit 0010
after hit -- physical_addr = 0110010101
physical address in cache = 0110010101
address_prepared = 1
enter cache modification -- address prepared
enter cache modification -- write
2 modify tag of set A, tag = 01100
Request  3: 
page fault: 0
data read posedge: 0000ac99
contents in TLB: 
block 00: tag:  4, valid: 1, dirty: 0, reference: 10, PPN: 2
block 01: tag:  0, valid: 1, dirty: 0, reference: 00, PPN: 1
block 10: tag:  1, valid: 1, dirty: 0, reference: 01, PPN: 3
block 11: tag:  0, valid: 0, dirty: 0, reference: 11, PPN: 0
contents in cache: 
block 00: tag: 10100, valid: 1, dirty: 1, word0: 0000028d, word1: 00000285, word2: 00000001, word3: 00000281
block 01: tag: 01100, valid: 1, dirty: 1, word0: 00000191, word1: 0000ac99, word2: 00000195, word3: 00000dac
block 10: tag: 00000, valid: 0, dirty: 0, word0: 00000000, word1: 00000000, word2: 00000000, word3: 00000000
block 11: tag: 11100, valid: 1, dirty: 1, word0: 0000039d, word1: 00000395, word2: 00000fac, word3: 00000391
TLB P_addr_PT_out: 00
TLB V_addr_PT_out: 000001
TLB_hit: 1
TLB.TLB[0]: 101000010010
TLB.TLB[1]: 100000000001
TLB.TLB[2]: 100100000111
TLB.TLB[3]: 001100000000
P_addr_PT_in: 11
TLB.VPN: 000000
Virtual_address: 00000010010101
request_num: 00011
virtual_addr = 00011110010101
whether hit 0010
after hit -- physical_addr = 0110010101
virtual_addr = 00011110010101
whether hit 0000
after hit -- physical_addr = 0110010101
virtual_addr = 00011110010101
TLB miss!
pass VPN to page_table now!
enter page_table modification
write to TLB page_table[ 7] = 10101
after read from page_table, TLB[          3] = 001100011101
after read from page_table -- physical_addr = 0110010101
virtual_addr = 00011110010101
TLB miss!
pass VPN to page_table now!
physical address in cache = 0110010101
address_prepared = 0
after read from page_table -- physical_addr = 0110010101
physical address in cache = 0110010101
address_prepared = 1
enter cache modification -- address prepared
4 modify tag of set A, tag = 01100
Request  4: 
page fault: 0
data read posedge: 0000ac99
contents in TLB: 
block 00: tag:  4, valid: 1, dirty: 0, reference: 10, PPN: 2
block 01: tag:  0, valid: 1, dirty: 0, reference: 00, PPN: 1
block 10: tag:  1, valid: 1, dirty: 0, reference: 01, PPN: 3
block 11: tag:  7, valid: 1, dirty: 0, reference: 11, PPN: 1
contents in cache: 
block 00: tag: 10100, valid: 1, dirty: 1, word0: 0000028d, word1: 00000285, word2: 00000001, word3: 00000281
block 01: tag: 01100, valid: 1, dirty: 1, word0: 00000191, word1: 0000ac99, word2: 00000195, word3: 00000dac
block 10: tag: 00000, valid: 0, dirty: 0, word0: 00000000, word1: 00000000, word2: 00000000, word3: 00000000
block 11: tag: 11100, valid: 1, dirty: 1, word0: 0000039d, word1: 00000395, word2: 00000fac, word3: 00000391
TLB P_addr_PT_out: 00
TLB V_addr_PT_out: 000111
TLB_hit: 1
TLB.TLB[0]: 101000010010
TLB.TLB[1]: 100000000001
TLB.TLB[2]: 100100000111
TLB.TLB[3]: 101100011101
P_addr_PT_in: 01
TLB.VPN: 000111
Virtual_address: 00011110010101
request_num: 00100
virtual_addr = 00100011010101
whether hit 1000
after hit -- physical_addr = 0111010101
virtual_addr = 00100011010101
whether hit 0000
after hit -- physical_addr = 0111010101
virtual_addr = 00100011010101
TLB miss!
pass VPN to page_table now!
enter page_table modification
write to TLB page_table[ 8] = 10101
after read from page_table, TLB[          0] = 101100100001
after read from page_table -- physical_addr = 0111010101
virtual_addr = 00100011010101
TLB miss!
pass VPN to page_table now!
physical address in cache = 0111010101
address_prepared = 0
after read from page_table -- physical_addr = 0111010101
physical address in cache = 0111010101
address_prepared = 1
enter cache modification -- address prepared
Request  5: 
page fault: 0
data read posedge: 0000ac99
contents in TLB: 
block 00: tag:  8, valid: 1, dirty: 0, reference: 11, PPN: 1
block 01: tag:  0, valid: 1, dirty: 0, reference: 01, PPN: 1
block 10: tag:  1, valid: 1, dirty: 0, reference: 10, PPN: 3
block 11: tag:  7, valid: 1, dirty: 0, reference: 00, PPN: 1
contents in cache: 
block 00: tag: 10100, valid: 1, dirty: 1, word0: 0000028d, word1: 00000285, word2: 00000001, word3: 00000281
block 01: tag: 01100, valid: 1, dirty: 1, word0: 00000191, word1: 0000ac99, word2: 00000195, word3: 00000dac
block 10: tag: 00000, valid: 0, dirty: 0, word0: 00000000, word1: 00000000, word2: 00000000, word3: 00000000
block 11: tag: 11100, valid: 1, dirty: 1, word0: 0000039d, word1: 00000395, word2: 00000fac, word3: 00000391
TLB P_addr_PT_out: 00
TLB V_addr_PT_out: 001000
TLB_hit: 1
TLB.TLB[0]: 101100100001
TLB.TLB[1]: 100100000001
TLB.TLB[2]: 101000000111
TLB.TLB[3]: 100000011101
P_addr_PT_in: 01
TLB.VPN: 001000
Virtual_address: 00100011010101
request_num: 00101
Request  5: 
page fault: 0
data read posedge: 0000ac99
contents in TLB: 
block 00: tag:  8, valid: 1, dirty: 0, reference: 11, PPN: 1
block 01: tag:  0, valid: 1, dirty: 0, reference: 01, PPN: 1
block 10: tag:  1, valid: 1, dirty: 0, reference: 10, PPN: 3
block 11: tag:  7, valid: 1, dirty: 0, reference: 00, PPN: 1
contents in cache: 
block 00: tag: 10100, valid: 1, dirty: 1, word0: 0000028d, word1: 00000285, word2: 00000001, word3: 00000281
block 01: tag: 01100, valid: 1, dirty: 1, word0: 00000191, word1: 0000ac99, word2: 00000195, word3: 00000dac
block 10: tag: 00000, valid: 0, dirty: 0, word0: 00000000, word1: 00000000, word2: 00000000, word3: 00000000
block 11: tag: 11100, valid: 1, dirty: 1, word0: 0000039d, word1: 00000395, word2: 00000fac, word3: 00000391
TLB P_addr_PT_out: 00
TLB V_addr_PT_out: 001000
TLB_hit: 1
TLB.TLB[0]: 101100100001
TLB.TLB[1]: 100100000001
TLB.TLB[2]: 101000000111
TLB.TLB[3]: 100000011101
P_addr_PT_in: 01
TLB.VPN: 001000
Virtual_address: 00100011010101
request_num: 00101
Request  5: 
page fault: 0
data read posedge: 0000ac99
contents in TLB: 
block 00: tag:  8, valid: 1, dirty: 0, reference: 11, PPN: 1
block 01: tag:  0, valid: 1, dirty: 0, reference: 01, PPN: 1
block 10: tag:  1, valid: 1, dirty: 0, reference: 10, PPN: 3
block 11: tag:  7, valid: 1, dirty: 0, reference: 00, PPN: 1
contents in cache: 
block 00: tag: 10100, valid: 1, dirty: 1, word0: 0000028d, word1: 00000285, word2: 00000001, word3: 00000281
block 01: tag: 01100, valid: 1, dirty: 1, word0: 00000191, word1: 0000ac99, word2: 00000195, word3: 00000dac
block 10: tag: 00000, valid: 0, dirty: 0, word0: 00000000, word1: 00000000, word2: 00000000, word3: 00000000
block 11: tag: 11100, valid: 1, dirty: 1, word0: 0000039d, word1: 00000395, word2: 00000fac, word3: 00000391
TLB P_addr_PT_out: 00
TLB V_addr_PT_out: 001000
TLB_hit: 1
TLB.TLB[0]: 101100100001
TLB.TLB[1]: 100100000001
TLB.TLB[2]: 101000000111
TLB.TLB[3]: 100000011101
P_addr_PT_in: 01
TLB.VPN: 001000
Virtual_address: 00100011010101
request_num: 00101
Request  5: 
page fault: 0
data read posedge: 0000ac99
contents in TLB: 
block 00: tag:  8, valid: 1, dirty: 0, reference: 11, PPN: 1
block 01: tag:  0, valid: 1, dirty: 0, reference: 01, PPN: 1
block 10: tag:  1, valid: 1, dirty: 0, reference: 10, PPN: 3
block 11: tag:  7, valid: 1, dirty: 0, reference: 00, PPN: 1
contents in cache: 
block 00: tag: 10100, valid: 1, dirty: 1, word0: 0000028d, word1: 00000285, word2: 00000001, word3: 00000281
block 01: tag: 01100, valid: 1, dirty: 1, word0: 00000191, word1: 0000ac99, word2: 00000195, word3: 00000dac
block 10: tag: 00000, valid: 0, dirty: 0, word0: 00000000, word1: 00000000, word2: 00000000, word3: 00000000
block 11: tag: 11100, valid: 1, dirty: 1, word0: 000001dd, word1: 000001d9, word2: 00000fac, word3: 00000391
TLB P_addr_PT_out: 00
TLB V_addr_PT_out: 001000
TLB_hit: 1
TLB.TLB[0]: 101100100001
TLB.TLB[1]: 100100000001
TLB.TLB[2]: 101000000111
TLB.TLB[3]: 100000011101
P_addr_PT_in: 01
TLB.VPN: 001000
Virtual_address: 00100011010101
request_num: 00101
physical address in cache = 0111010101
address_prepared = 1
enter cache modification -- address prepared
Request  5: 
page fault: 0
data read posedge: 000001d9
contents in TLB: 
block 00: tag:  8, valid: 1, dirty: 0, reference: 11, PPN: 1
block 01: tag:  0, valid: 1, dirty: 0, reference: 01, PPN: 1
block 10: tag:  1, valid: 1, dirty: 0, reference: 10, PPN: 3
block 11: tag:  7, valid: 1, dirty: 0, reference: 00, PPN: 1
contents in cache: 
block 00: tag: 10100, valid: 1, dirty: 1, word0: 0000028d, word1: 00000285, word2: 00000001, word3: 00000281
block 01: tag: 01100, valid: 1, dirty: 1, word0: 00000191, word1: 0000ac99, word2: 00000195, word3: 00000dac
block 10: tag: 00000, valid: 0, dirty: 0, word0: 00000000, word1: 00000000, word2: 00000000, word3: 00000000
block 11: tag: 01110, valid: 1, dirty: 0, word0: 000001dd, word1: 000001d9, word2: 000001d5, word3: 000001d1
TLB P_addr_PT_out: 00
TLB V_addr_PT_out: 001000
TLB_hit: 1
TLB.TLB[0]: 101100100001
TLB.TLB[1]: 100100000001
TLB.TLB[2]: 101000000111
TLB.TLB[3]: 100000011101
P_addr_PT_in: 01
TLB.VPN: 001000
Virtual_address: 00100011010101
request_num: 00101
virtual_addr = 00000111010100
whether hit 0001
after hit -- physical_addr = 0111010100
virtual_addr = 00000111010100
whether hit 0100
after hit -- physical_addr = 1111010100
physical address in cache = 1111010100
address_prepared = 1
enter cache modification -- address prepared
Request  6: 
page fault: 0
data read posedge: ffffffd9
contents in TLB: 
block 00: tag:  8, valid: 1, dirty: 0, reference: 01, PPN: 1
block 01: tag:  0, valid: 1, dirty: 0, reference: 11, PPN: 1
block 10: tag:  1, valid: 1, dirty: 0, reference: 00, PPN: 3
block 11: tag:  7, valid: 1, dirty: 0, reference: 10, PPN: 1
contents in cache: 
block 00: tag: 10100, valid: 1, dirty: 1, word0: 0000028d, word1: 00000285, word2: 00000001, word3: 00000281
block 01: tag: 01100, valid: 1, dirty: 1, word0: 00000191, word1: 0000ac99, word2: 00000195, word3: 00000dac
block 10: tag: 00000, valid: 0, dirty: 0, word0: 00000000, word1: 00000000, word2: 00000000, word3: 00000000
block 11: tag: 01110, valid: 1, dirty: 0, word0: 000001dd, word1: 000001d9, word2: 000001d5, word3: 000001d1
TLB P_addr_PT_out: 00
TLB V_addr_PT_out: 001000
TLB_hit: 1
TLB.TLB[0]: 100100100001
TLB.TLB[1]: 101100000001
TLB.TLB[2]: 100000000111
TLB.TLB[3]: 101000011101
P_addr_PT_in: 01
TLB.VPN: 000001
Virtual_address: 00000111010100
request_num: 00110
Request  6: 
page fault: 0
data read posedge: ffffffd9
contents in TLB: 
block 00: tag:  8, valid: 1, dirty: 0, reference: 01, PPN: 1
block 01: tag:  0, valid: 1, dirty: 0, reference: 11, PPN: 1
block 10: tag:  1, valid: 1, dirty: 0, reference: 00, PPN: 3
block 11: tag:  7, valid: 1, dirty: 0, reference: 10, PPN: 1
contents in cache: 
block 00: tag: 10100, valid: 1, dirty: 1, word0: 0000028d, word1: 00000285, word2: 00000001, word3: 00000281
block 01: tag: 01100, valid: 1, dirty: 1, word0: 00000191, word1: 0000ac99, word2: 00000195, word3: 00000dac
block 10: tag: 00000, valid: 0, dirty: 0, word0: 00000000, word1: 00000000, word2: 00000000, word3: 00000000
block 11: tag: 01110, valid: 1, dirty: 0, word0: 000001dd, word1: 000001d9, word2: 000001d5, word3: 000001d1
TLB P_addr_PT_out: 00
TLB V_addr_PT_out: 001000
TLB_hit: 1
TLB.TLB[0]: 100100100001
TLB.TLB[1]: 101100000001
TLB.TLB[2]: 100000000111
TLB.TLB[3]: 101000011101
P_addr_PT_in: 01
TLB.VPN: 000001
Virtual_address: 00000111010100
request_num: 00110
Request  6: 
page fault: 0
data read posedge: ffffffd9
contents in TLB: 
block 00: tag:  8, valid: 1, dirty: 0, reference: 01, PPN: 1
block 01: tag:  0, valid: 1, dirty: 0, reference: 11, PPN: 1
block 10: tag:  1, valid: 1, dirty: 0, reference: 00, PPN: 3
block 11: tag:  7, valid: 1, dirty: 0, reference: 10, PPN: 1
contents in cache: 
block 00: tag: 10100, valid: 1, dirty: 1, word0: 0000028d, word1: 00000285, word2: 00000001, word3: 00000281
block 01: tag: 01100, valid: 1, dirty: 1, word0: 00000191, word1: 0000ac99, word2: 00000195, word3: 00000dac
block 10: tag: 00000, valid: 0, dirty: 0, word0: 00000000, word1: 00000000, word2: 00000000, word3: 00000000
block 11: tag: 01110, valid: 1, dirty: 0, word0: 000001dd, word1: 000001d9, word2: 000001d5, word3: 000001d1
TLB P_addr_PT_out: 00
TLB V_addr_PT_out: 001000
TLB_hit: 1
TLB.TLB[0]: 100100100001
TLB.TLB[1]: 101100000001
TLB.TLB[2]: 100000000111
TLB.TLB[3]: 101000011101
P_addr_PT_in: 01
TLB.VPN: 000001
Virtual_address: 00000111010100
request_num: 00110
Request  6: 
page fault: 0
data read posedge: ffffffd9
contents in TLB: 
block 00: tag:  8, valid: 1, dirty: 0, reference: 01, PPN: 1
block 01: tag:  0, valid: 1, dirty: 0, reference: 11, PPN: 1
block 10: tag:  1, valid: 1, dirty: 0, reference: 00, PPN: 3
block 11: tag:  7, valid: 1, dirty: 0, reference: 10, PPN: 1
contents in cache: 
block 00: tag: 10100, valid: 1, dirty: 1, word0: 0000028d, word1: 00000285, word2: 00000001, word3: 00000281
block 01: tag: 01100, valid: 1, dirty: 1, word0: 000003dd, word1: 000003d9, word2: 000003d5, word3: 00000dac
block 10: tag: 00000, valid: 0, dirty: 0, word0: 00000000, word1: 00000000, word2: 00000000, word3: 00000000
block 11: tag: 01110, valid: 1, dirty: 0, word0: 000001dd, word1: 000001d9, word2: 000001d5, word3: 000001d1
TLB P_addr_PT_out: 00
TLB V_addr_PT_out: 001000
TLB_hit: 1
TLB.TLB[0]: 100100100001
TLB.TLB[1]: 101100000001
TLB.TLB[2]: 100000000111
TLB.TLB[3]: 101000011101
P_addr_PT_in: 01
TLB.VPN: 000001
Virtual_address: 00000111010100
request_num: 00110
3 modify tag of set A, tag = 11110
physical address in cache = 1111010100
address_prepared = 1
enter cache modification -- address prepared
4 modify tag of set A, tag = 11110
Request  6: 
page fault: 0
data read posedge: ffffffd9
contents in TLB: 
block 00: tag:  8, valid: 1, dirty: 0, reference: 01, PPN: 1
block 01: tag:  0, valid: 1, dirty: 0, reference: 11, PPN: 1
block 10: tag:  1, valid: 1, dirty: 0, reference: 00, PPN: 3
block 11: tag:  7, valid: 1, dirty: 0, reference: 10, PPN: 1
contents in cache: 
block 00: tag: 10100, valid: 1, dirty: 1, word0: 0000028d, word1: 00000285, word2: 00000001, word3: 00000281
block 01: tag: 11110, valid: 1, dirty: 0, word0: 000003dd, word1: 000003d9, word2: 000003d5, word3: 000003d1
block 10: tag: 00000, valid: 0, dirty: 0, word0: 00000000, word1: 00000000, word2: 00000000, word3: 00000000
block 11: tag: 01110, valid: 1, dirty: 0, word0: 000001dd, word1: 000001d9, word2: 000001d5, word3: 000001d1
TLB P_addr_PT_out: 00
TLB V_addr_PT_out: 001000
TLB_hit: 1
TLB.TLB[0]: 100100100001
TLB.TLB[1]: 101100000001
TLB.TLB[2]: 100000000111
TLB.TLB[3]: 101000011101
P_addr_PT_in: 01
TLB.VPN: 000001
Virtual_address: 00000111010100
request_num: 00110
virtual_addr = 00011110010111
whether hit 0100
after hit -- physical_addr = 1110010111
virtual_addr = 00011110010111
whether hit 1000
after hit -- physical_addr = 0110010111
physical address in cache = 0110010111
address_prepared = 1
enter cache modification -- address prepared
enter cache modification -- write
enter cache modification -- write -- miss
Request  7: 
page fault: 0
data read posedge: 000003d9
contents in TLB: 
block 00: tag:  8, valid: 1, dirty: 0, reference: 10, PPN: 1
block 01: tag:  0, valid: 1, dirty: 0, reference: 11, PPN: 1
block 10: tag:  1, valid: 1, dirty: 0, reference: 01, PPN: 3
block 11: tag:  7, valid: 1, dirty: 0, reference: 00, PPN: 1
contents in cache: 
block 00: tag: 10100, valid: 1, dirty: 1, word0: 0000028d, word1: 00000285, word2: 00000001, word3: 00000281
block 01: tag: 11110, valid: 1, dirty: 0, word0: 000003dd, word1: 000003d9, word2: 000003d5, word3: 000003d1
block 10: tag: 00000, valid: 0, dirty: 0, word0: 00000000, word1: 00000000, word2: 00000000, word3: 00000000
block 11: tag: 01110, valid: 1, dirty: 0, word0: 00000191, word1: 000001d9, word2: 000001d5, word3: 000001d1
TLB P_addr_PT_out: 00
TLB V_addr_PT_out: 001000
TLB_hit: 1
TLB.TLB[0]: 101000100001
