TLB/results/myresult.txt
VCD info: dumpfile vm_test.vcd opened for output.
Request  0: 
page fault: 0
data read posedge: 00000000
contents in TLB: 
block 00: tag:  4, valid: 1, dirty: 0, reference: 11, PPN: 2
block 01: tag:  0, valid: 0, dirty: 0, reference: 10, PPN: 0
block 10: tag:  0, valid: 0, dirty: 0, reference: 01, PPN: 0
block 11: tag:  0, valid: 0, dirty: 0, reference: 00, PPN: 0
contents in cache: 
block 00: tag: 00000, valid: 0, dirty: 0, word0: 00000000, word1: 00000000, word2: 00000000, word3: 00000000
block 01: tag: 00000, valid: 0, dirty: 0, word0: 00000000, word1: 00000000, word2: 00000000, word3: 00000000
block 10: tag: 00000, valid: 0, dirty: 0, word0: 00000000, word1: 00000000, word2: 00000000, word3: 00000000
block 11: tag: 00000, valid: 0, dirty: 0, word0: 00000000, word1: 00000000, word2: 00000000, word3: 00000000
Request  0: 
page fault: 0
data read posedge: 00000000
contents in TLB: 
block 00: tag:  4, valid: 1, dirty: 0, reference: 11, PPN: 2
block 01: tag:  0, valid: 0, dirty: 0, reference: 10, PPN: 0
block 10: tag:  0, valid: 0, dirty: 0, reference: 01, PPN: 0
block 11: tag:  0, valid: 0, dirty: 0, reference: 00, PPN: 0
contents in cache: 
block 00: tag: 00000, valid: 0, dirty: 0, word0: 0000028d, word1: 00000285, word2: 00000000, word3: 00000000
block 01: tag: 00000, valid: 0, dirty: 0, word0: 00000000, word1: 00000000, word2: 00000000, word3: 00000000
block 10: tag: 00000, valid: 0, dirty: 0, word0: 00000000, word1: 00000000, word2: 00000000, word3: 00000000
block 11: tag: 00000, valid: 0, dirty: 0, word0: 00000000, word1: 00000000, word2: 00000000, word3: 00000000
Request  0: 
page fault: 0
data read posedge: 00000001
contents in TLB: 
block 00: tag:  4, valid: 1, dirty: 0, reference: 11, PPN: 2
block 01: tag:  0, valid: 0, dirty: 0, reference: 10, PPN: 0
block 10: tag:  0, valid: 0, dirty: 0, reference: 01, PPN: 0
block 11: tag:  0, valid: 0, dirty: 0, reference: 00, PPN: 0
contents in cache: 
block 00: tag: 10100, valid: 1, dirty: 1, word0: 0000028d, word1: 00000285, word2: 00000001, word3: 00000281
block 01: tag: 00000, valid: 0, dirty: 0, word0: 00000000, word1: 00000000, word2: 00000000, word3: 00000000
block 10: tag: 00000, valid: 0, dirty: 0, word0: 00000000, word1: 00000000, word2: 00000000, word3: 00000000
block 11: tag: 00000, valid: 0, dirty: 0, word0: 00000000, word1: 00000000, word2: 00000000, word3: 00000000
Request  1: 
page fault: 0
data read posedge: 00000281
contents in TLB: 
block 00: tag:  4, valid: 1, dirty: 0, reference: 00, PPN: 2
block 01: tag:  0, valid: 1, dirty: 0, reference: 11, PPN: 1
block 10: tag:  0, valid: 0, dirty: 0, reference: 10, PPN: 0
block 11: tag:  0, valid: 0, dirty: 0, reference: 01, PPN: 0
contents in cache: 
block 00: tag: 10100, valid: 1, dirty: 1, word0: 0000028d, word1: 00000285, word2: 00000001, word3: 00000281
block 01: tag: 00000, valid: 0, dirty: 0, word0: 00000000, word1: 00000000, word2: 00000000, word3: 00000000
block 10: tag: 00000, valid: 0, dirty: 0, word0: 00000000, word1: 00000000, word2: 00000000, word3: 00000000
block 11: tag: 00000, valid: 0, dirty: 0, word0: 00000000, word1: 00000000, word2: 00000000, word3: 00000000
Request  1: 
page fault: 0
data read posedge: 00000281
contents in TLB: 
block 00: tag:  4, valid: 1, dirty: 0, reference: 00, PPN: 2
block 01: tag:  0, valid: 1, dirty: 0, reference: 11, PPN: 1
block 10: tag:  0, valid: 0, dirty: 0, reference: 10, PPN: 0
block 11: tag:  0, valid: 0, dirty: 0, reference: 01, PPN: 0
contents in cache: 
block 00: tag: 10100, valid: 1, dirty: 1, word0: 0000028d, word1: 00000285, word2: 00000001, word3: 00000281
block 01: tag: 00000, valid: 0, dirty: 0, word0: 00000000, word1: 00000000, word2: 00000000, word3: 00000000
block 10: tag: 00000, valid: 0, dirty: 0, word0: 00000191, word1: 00000199, word2: 00000195, word3: 00000000
block 11: tag: 00000, valid: 0, dirty: 0, word0: 00000000, word1: 00000000, word2: 00000000, word3: 00000000
Request  1: 
page fault: 0
data read posedge: 00000dac
contents in TLB: 
block 00: tag:  4, valid: 1, dirty: 0, reference: 00, PPN: 2
block 01: tag:  0, valid: 1, dirty: 0, reference: 11, PPN: 1
block 10: tag:  0, valid: 0, dirty: 0, reference: 10, PPN: 0
block 11: tag:  0, valid: 0, dirty: 0, reference: 01, PPN: 0
contents in cache: 
block 00: tag: 10100, valid: 1, dirty: 1, word0: 0000028d, word1: 00000285, word2: 00000001, word3: 00000281
block 01: tag: 00000, valid: 0, dirty: 0, word0: 00000000, word1: 00000000, word2: 00000000, word3: 00000000
block 10: tag: 01100, valid: 1, dirty: 1, word0: 00000191, word1: 00000199, word2: 00000195, word3: 00000dac
block 11: tag: 00000, valid: 0, dirty: 0, word0: 00000000, word1: 00000000, word2: 00000000, word3: 00000000
Request  2: 
page fault: 0
data read posedge: 00000195
contents in TLB: 
block 00: tag:  4, valid: 1, dirty: 0, reference: 01, PPN: 2
block 01: tag:  0, valid: 1, dirty: 0, reference: 00, PPN: 1
block 10: tag:  1, valid: 1, dirty: 0, reference: 11, PPN: 3
block 11: tag:  0, valid: 0, dirty: 0, reference: 10, PPN: 0
contents in cache: 
block 00: tag: 10100, valid: 1, dirty: 1, word0: 0000028d, word1: 00000285, word2: 00000001, word3: 00000281
block 01: tag: 00000, valid: 0, dirty: 0, word0: 00000000, word1: 00000000, word2: 00000000, word3: 00000000
block 10: tag: 01100, valid: 1, dirty: 1, word0: 00000191, word1: 00000199, word2: 00000195, word3: 00000dac
block 11: tag: 00000, valid: 0, dirty: 0, word0: 00000000, word1: 00000000, word2: 00000000, word3: 00000000
Request  2: 
page fault: 0
data read posedge: 00000195
contents in TLB: 
block 00: tag:  4, valid: 1, dirty: 0, reference: 01, PPN: 2
block 01: tag:  0, valid: 1, dirty: 0, reference: 00, PPN: 1
block 10: tag:  1, valid: 1, dirty: 0, reference: 11, PPN: 3
block 11: tag:  0, valid: 0, dirty: 0, reference: 10, PPN: 0
contents in cache: 
block 00: tag: 10100, valid: 1, dirty: 1, word0: 0000028d, word1: 00000285, word2: 00000001, word3: 00000281
block 01: tag: 00000, valid: 0, dirty: 0, word0: 00000000, word1: 00000000, word2: 00000000, word3: 00000000
block 10: tag: 01100, valid: 1, dirty: 1, word0: 00000191, word1: 00000199, word2: 00000195, word3: 00000dac
block 11: tag: 00000, valid: 0, dirty: 0, word0: 0000039d, word1: 00000395, word2: 00000000, word3: 00000000
Request  2: 
page fault: 0
data read posedge: 00000fac
contents in TLB: 
block 00: tag:  4, valid: 1, dirty: 0, reference: 01, PPN: 2
block 01: tag:  0, valid: 1, dirty: 0, reference: 00, PPN: 1
block 10: tag:  1, valid: 1, dirty: 0, reference: 11, PPN: 3
block 11: tag:  0, valid: 0, dirty: 0, reference: 10, PPN: 0
contents in cache: 
block 00: tag: 10100, valid: 1, dirty: 1, word0: 0000028d, word1: 00000285, word2: 00000001, word3: 00000281
block 01: tag: 00000, valid: 0, dirty: 0, word0: 00000000, word1: 00000000, word2: 00000000, word3: 00000000
block 10: tag: 01100, valid: 1, dirty: 1, word0: 00000191, word1: 00000199, word2: 00000195, word3: 00000dac
block 11: tag: 11100, valid: 1, dirty: 1, word0: 0000039d, word1: 00000395, word2: 00000fac, word3: 00000391
Request  3: 
page fault: 0
data read posedge: 000000ac
contents in TLB: 
block 00: tag:  4, valid: 1, dirty: 0, reference: 10, PPN: 2
block 01: tag:  0, valid: 1, dirty: 0, reference: 00, PPN: 1
block 10: tag:  1, valid: 1, dirty: 0, reference: 01, PPN: 3
block 11: tag:  0, valid: 0, dirty: 0, reference: 11, PPN: 0
contents in cache: 
block 00: tag: 10100, valid: 1, dirty: 1, word0: 0000028d, word1: 00000285, word2: 00000001, word3: 00000281
block 01: tag: 00000, valid: 0, dirty: 0, word0: 00000000, word1: 00000000, word2: 00000000, word3: 00000000
block 10: tag: 01100, valid: 1, dirty: 1, word0: 00000191, word1: 0000ac99, word2: 00000195, word3: 00000dac
block 11: tag: 11100, valid: 1, dirty: 1, word0: 0000039d, word1: 00000395, word2: 00000fac, word3: 00000391
Request  4: 
page fault: 0
data read posedge: 000000ac
contents in TLB: 
block 00: tag:  4, valid: 1, dirty: 0, reference: 10, PPN: 2
block 01: tag:  0, valid: 1, dirty: 0, reference: 00, PPN: 1
block 10: tag:  1, valid: 1, dirty: 0, reference: 01, PPN: 3
block 11: tag:  7, valid: 1, dirty: 0, reference: 11, PPN: 1
contents in cache: 
block 00: tag: 10100, valid: 1, dirty: 1, word0: 0000028d, word1: 00000285, word2: 00000001, word3: 00000281
block 01: tag: 00000, valid: 0, dirty: 0, word0: 00000000, word1: 00000000, word2: 00000000, word3: 00000000
block 10: tag: 01100, valid: 1, dirty: 1, word0: 00000191, word1: 0000ac99, word2: 00000195, word3: 00000dac
block 11: tag: 11100, valid: 1, dirty: 1, word0: 0000039d, word1: 00000395, word2: 00000fac, word3: 00000391
Request  5: 
page fault: 0
data read posedge: 000000ac
contents in TLB: 
block 00: tag:  8, valid: 1, dirty: 0, reference: 11, PPN: 1
block 01: tag:  0, valid: 1, dirty: 0, reference: 01, PPN: 1
block 10: tag:  1, valid: 1, dirty: 0, reference: 10, PPN: 3
block 11: tag:  7, valid: 1, dirty: 0, reference: 00, PPN: 1
contents in cache: 
block 00: tag: 10100, valid: 1, dirty: 1, word0: 0000028d, word1: 00000285, word2: 00000001, word3: 00000281
block 01: tag: 00000, valid: 0, dirty: 0, word0: 00000000, word1: 00000000, word2: 00000000, word3: 00000000
block 10: tag: 01100, valid: 1, dirty: 1, word0: 00000191, word1: 0000ac99, word2: 00000195, word3: 00000dac
block 11: tag: 11100, valid: 1, dirty: 1, word0: 0000039d, word1: 00000395, word2: 00000fac, word3: 00000391
Request  5: 
page fault: 0
data read posedge: 000000ac
contents in TLB: 
block 00: tag:  8, valid: 1, dirty: 0, reference: 11, PPN: 1
block 01: tag:  0, valid: 1, dirty: 0, reference: 01, PPN: 1
block 10: tag:  1, valid: 1, dirty: 0, reference: 10, PPN: 3
block 11: tag:  7, valid: 1, dirty: 0, reference: 00, PPN: 1
contents in cache: 
block 00: tag: 10100, valid: 1, dirty: 1, word0: 0000028d, word1: 00000285, word2: 00000001, word3: 00000281
block 01: tag: 00000, valid: 0, dirty: 0, word0: 00000000, word1: 00000000, word2: 00000000, word3: 00000000
block 10: tag: 01100, valid: 1, dirty: 1, word0: 00000191, word1: 0000ac99, word2: 00000195, word3: 00000dac
block 11: tag: 11100, valid: 1, dirty: 1, word0: 0000039d, word1: 00000395, word2: 00000fac, word3: 00000391
Request  5: 
page fault: 0
data read posedge: 000000ac
contents in TLB: 
block 00: tag:  8, valid: 1, dirty: 0, reference: 11, PPN: 1
block 01: tag:  0, valid: 1, dirty: 0, reference: 01, PPN: 1
block 10: tag:  1, valid: 1, dirty: 0, reference: 10, PPN: 3
block 11: tag:  7, valid: 1, dirty: 0, reference: 00, PPN: 1
contents in cache: 
block 00: tag: 10100, valid: 1, dirty: 1, word0: 0000028d, word1: 00000285, word2: 00000001, word3: 00000281
block 01: tag: 00000, valid: 0, dirty: 0, word0: 00000000, word1: 00000000, word2: 00000000, word3: 00000000
block 10: tag: 01100, valid: 1, dirty: 1, word0: 00000191, word1: 0000ac99, word2: 00000195, word3: 00000dac
block 11: tag: 11100, valid: 1, dirty: 1, word0: 0000039d, word1: 00000395, word2: 00000fac, word3: 00000391
Request  5: 
page fault: 0
data read posedge: 000000ac
contents in TLB: 
block 00: tag:  8, valid: 1, dirty: 0, reference: 11, PPN: 1
block 01: tag:  0, valid: 1, dirty: 0, reference: 01, PPN: 1
block 10: tag:  1, valid: 1, dirty: 0, reference: 10, PPN: 3
block 11: tag:  7, valid: 1, dirty: 0, reference: 00, PPN: 1
contents in cache: 
block 00: tag: 10100, valid: 1, dirty: 1, word0: 0000028d, word1: 00000285, word2: 00000001, word3: 00000281
block 01: tag: 00000, valid: 0, dirty: 0, word0: 00000000, word1: 00000000, word2: 00000000, word3: 00000000
block 10: tag: 01100, valid: 1, dirty: 1, word0: 00000191, word1: 0000ac99, word2: 00000195, word3: 00000dac
block 11: tag: 11100, valid: 1, dirty: 1, word0: 000001dd, word1: 000001d9, word2: 00000fac, word3: 00000391
Request  5: 
page fault: 0
data read posedge: 00000001
contents in TLB: 
block 00: tag:  8, valid: 1, dirty: 0, reference: 11, PPN: 1
block 01: tag:  0, valid: 1, dirty: 0, reference: 01, PPN: 1
block 10: tag:  1, valid: 1, dirty: 0, reference: 10, PPN: 3
block 11: tag:  7, valid: 1, dirty: 0, reference: 00, PPN: 1
contents in cache: 
block 00: tag: 10100, valid: 1, dirty: 1, word0: 0000028d, word1: 00000285, word2: 00000001, word3: 00000281
block 01: tag: 00000, valid: 0, dirty: 0, word0: 00000000, word1: 00000000, word2: 00000000, word3: 00000000
block 10: tag: 01100, valid: 1, dirty: 1, word0: 00000191, word1: 0000ac99, word2: 00000195, word3: 00000dac
block 11: tag: 01110, valid: 1, dirty: 0, word0: 000001dd, word1: 000001d9, word2: 000001d5, word3: 000001d1
Request  6: 
page fault: 0
data read posedge: 000001d9
contents in TLB: 
block 00: tag:  8, valid: 1, dirty: 0, reference: 01, PPN: 1
block 01: tag:  0, valid: 1, dirty: 0, reference: 11, PPN: 1
block 10: tag:  1, valid: 1, dirty: 0, reference: 00, PPN: 3
block 11: tag:  7, valid: 1, dirty: 0, reference: 10, PPN: 1
contents in cache: 
block 00: tag: 10100, valid: 1, dirty: 1, word0: 0000028d, word1: 00000285, word2: 00000001, word3: 00000281
block 01: tag: 00000, valid: 0, dirty: 0, word0: 00000000, word1: 00000000, word2: 00000000, word3: 00000000
block 10: tag: 01100, valid: 1, dirty: 1, word0: 00000191, word1: 0000ac99, word2: 00000195, word3: 00000dac
block 11: tag: 01110, valid: 1, dirty: 0, word0: 000001dd, word1: 000001d9, word2: 000001d5, word3: 000001d1
Request  6: 
page fault: 0
data read posedge: 000001d9
contents in TLB: 
block 00: tag:  8, valid: 1, dirty: 0, reference: 01, PPN: 1
block 01: tag:  0, valid: 1, dirty: 0, reference: 11, PPN: 1
block 10: tag:  1, valid: 1, dirty: 0, reference: 00, PPN: 3
block 11: tag:  7, valid: 1, dirty: 0, reference: 10, PPN: 1
contents in cache: 
block 00: tag: 10100, valid: 1, dirty: 1, word0: 0000028d, word1: 00000285, word2: 00000001, word3: 00000281
block 01: tag: 00000, valid: 0, dirty: 0, word0: 00000000, word1: 00000000, word2: 00000000, word3: 00000000
block 10: tag: 01100, valid: 1, dirty: 1, word0: 00000191, word1: 0000ac99, word2: 00000195, word3: 00000dac
block 11: tag: 01110, valid: 1, dirty: 0, word0: 000001dd, word1: 000001d9, word2: 000001d5, word3: 000001d1
Request  6: 
page fault: 0
data read posedge: 000001d9
contents in TLB: 
block 00: tag:  8, valid: 1, dirty: 0, reference: 01, PPN: 1
block 01: tag:  0, valid: 1, dirty: 0, reference: 11, PPN: 1
block 10: tag:  1, valid: 1, dirty: 0, reference: 00, PPN: 3
block 11: tag:  7, valid: 1, dirty: 0, reference: 10, PPN: 1
contents in cache: 
block 00: tag: 10100, valid: 1, dirty: 1, word0: 0000028d, word1: 00000285, word2: 00000001, word3: 00000281
block 01: tag: 00000, valid: 0, dirty: 0, word0: 00000000, word1: 00000000, word2: 00000000, word3: 00000000
block 10: tag: 01100, valid: 1, dirty: 1, word0: 00000191, word1: 0000ac99, word2: 00000195, word3: 00000dac
block 11: tag: 01110, valid: 1, dirty: 0, word0: 000001dd, word1: 000001d9, word2: 000001d5, word3: 000001d1
Request  6: 
page fault: 0
data read posedge: 000001d9
contents in TLB: 
block 00: tag:  8, valid: 1, dirty: 0, reference: 01, PPN: 1
block 01: tag:  0, valid: 1, dirty: 0, reference: 11, PPN: 1
block 10: tag:  1, valid: 1, dirty: 0, reference: 00, PPN: 3
block 11: tag:  7, valid: 1, dirty: 0, reference: 10, PPN: 1
contents in cache: 
block 00: tag: 10100, valid: 1, dirty: 1, word0: 0000028d, word1: 00000285, word2: 00000001, word3: 00000281
block 01: tag: 00000, valid: 0, dirty: 0, word0: 00000000, word1: 00000000, word2: 00000000, word3: 00000000
block 10: tag: 01100, valid: 1, dirty: 1, word0: 000003dd, word1: 000003d9, word2: 000003d5, word3: 00000dac
block 11: tag: 01110, valid: 1, dirty: 0, word0: 000001dd, word1: 000001d9, word2: 000001d5, word3: 000001d1
Request  6: 
page fault: 0
data read posedge: 000003d9
contents in TLB: 
block 00: tag:  8, valid: 1, dirty: 0, reference: 01, PPN: 1
block 01: tag:  0, valid: 1, dirty: 0, reference: 11, PPN: 1
block 10: tag:  1, valid: 1, dirty: 0, reference: 00, PPN: 3
block 11: tag:  7, valid: 1, dirty: 0, reference: 10, PPN: 1
contents in cache: 
block 00: tag: 10100, valid: 1, dirty: 1, word0: 0000028d, word1: 00000285, word2: 00000001, word3: 00000281
block 01: tag: 00000, valid: 0, dirty: 0, word0: 00000000, word1: 00000000, word2: 00000000, word3: 00000000
block 10: tag: 11110, valid: 1, dirty: 0, word0: 000003dd, word1: 000003d9, word2: 000003d5, word3: 000003d1
block 11: tag: 01110, valid: 1, dirty: 0, word0: 000001dd, word1: 000001d9, word2: 000001d5, word3: 000001d1
Request  7: 
page fault: 0
data read posedge: 00000000
contents in TLB: 
block 00: tag:  8, valid: 1, dirty: 0, reference: 10, PPN: 1
block 01: tag:  0, valid: 1, dirty: 0, reference: 11, PPN: 1
block 10: tag:  1, valid: 1, dirty: 0, reference: 01, PPN: 3
block 11: tag:  7, valid: 1, dirty: 0, reference: 00, PPN: 1
contents in cache: 
block 00: tag: 10100, valid: 1, dirty: 1, word0: 0000028d, word1: 00000285, word2: 00000001, word3: 00000281
block 01: tag: 00000, valid: 0, dirty: 0, word0: 00000000, word1: 00000000, word2: 00000000, word3: 00000000
block 10: tag: 11110, valid: 1, dirty: 0, word0: 000003dd, word1: 000003d9, word2: 000003d5, word3: 000003d1
block 11: tag: 01110, valid: 1, dirty: 0, word0: 00000191, word1: 000001d9, word2: 000001d5, word3: 000001d1
Request  7: 
page fault: 0
data read posedge: 00000000
contents in TLB: 
block 00: tag:  8, valid: 1, dirty: 0, reference: 10, PPN: 1
block 01: tag:  0, valid: 1, dirty: 0, reference: 11, PPN: 1
block 10: tag:  1, valid: 1, dirty: 0, reference: 01, PPN: 3
block 11: tag:  7, valid: 1, dirty: 0, reference: 00, PPN: 1
contents in cache: 
block 00: tag: 10100, valid: 1, dirty: 1, word0: 0000028d, word1: 00000285, word2: 00000001, word3: 00000281
block 01: tag: 00000, valid: 0, dirty: 0, word0: 00000000, word1: 00000000, word2: 00000000, word3: 00000000
block 10: tag: 11110, valid: 1, dirty: 0, word0: 000003dd, word1: 000003d9, word2: 000003d5, word3: 000003d1
block 11: tag: 01110, valid: 1, dirty: 0, word0: 00000191, word1: 0000ac99, word2: 00000195, word3: 000001d1
Request  7: 
page fault: 0
data read posedge: 00000048
contents in TLB: 
block 00: tag:  8, valid: 1, dirty: 0, reference: 10, PPN: 1
block 01: tag:  0, valid: 1, dirty: 0, reference: 11, PPN: 1
block 10: tag:  1, valid: 1, dirty: 0, reference: 01, PPN: 3
block 11: tag:  7, valid: 1, dirty: 0, reference: 00, PPN: 1
contents in cache: 
block 00: tag: 10100, valid: 1, dirty: 1, word0: 0000028d, word1: 00000285, word2: 00000001, word3: 00000281
block 01: tag: 00000, valid: 0, dirty: 0, word0: 00000000, word1: 00000000, word2: 00000000, word3: 00000000
block 10: tag: 11110, valid: 1, dirty: 0, word0: 000003dd, word1: 000003d9, word2: 000003d5, word3: 000003d1
block 11: tag: 01100, valid: 1, dirty: 1, word0: 00000191, word1: 4800ac99, word2: 00000195, word3: 00000dac
Request  8: 
page fault: 0
data read posedge: 00000195
contents in TLB: 
block 00: tag:  8, valid: 1, dirty: 0, reference: 11, PPN: 1
block 01: tag:  0, valid: 1, dirty: 0, reference: 00, PPN: 1
block 10: tag:  1, valid: 1, dirty: 0, reference: 10, PPN: 3
block 11: tag:  7, valid: 1, dirty: 0, reference: 01, PPN: 1
contents in cache: 
block 00: tag: 10100, valid: 1, dirty: 1, word0: 0000028d, word1: 00000285, word2: 00000001, word3: 00000281
block 01: tag: 00000, valid: 0, dirty: 0, word0: 00000000, word1: 00000000, word2: 00000000, word3: 00000000
block 10: tag: 11110, valid: 1, dirty: 0, word0: 000003dd, word1: 000003d9, word2: 000003d5, word3: 000003d1
block 11: tag: 01100, valid: 1, dirty: 1, word0: 00000191, word1: 4800ac99, word2: 00000195, word3: 00000dac
Request  9: 
page fault: 0
data read posedge: 4800ac99
contents in TLB: 
block 00: tag: 10, valid: 1, dirty: 0, reference: 11, PPN: 1
block 01: tag:  0, valid: 1, dirty: 0, reference: 00, PPN: 1
block 10: tag:  1, valid: 1, dirty: 0, reference: 10, PPN: 3
block 11: tag:  7, valid: 1, dirty: 0, reference: 01, PPN: 1
contents in cache: 
block 00: tag: 10100, valid: 1, dirty: 1, word0: 0000028d, word1: 00000285, word2: 00000001, word3: 00000281
block 01: tag: 00000, valid: 0, dirty: 0, word0: 00000000, word1: 00000000, word2: 00000000, word3: 00000000
block 10: tag: 11110, valid: 1, dirty: 0, word0: 000003dd, word1: 000003d9, word2: 000003d5, word3: 000003d1
block 11: tag: 01100, valid: 1, dirty: 1, word0: 00000191, word1: 4800ac99, word2: 00000195, word3: 00000dac
Request 10: 
page fault: 0
data read posedge: 4800ac99
contents in TLB: 
block 00: tag: 10, valid: 1, dirty: 0, reference: 01, PPN: 1
block 01: tag:  0, valid: 1, dirty: 0, reference: 00, PPN: 1
block 10: tag:  1, valid: 1, dirty: 0, reference: 11, PPN: 3
block 11: tag:  7, valid: 1, dirty: 0, reference: 10, PPN: 1
contents in cache: 
block 00: tag: 10100, valid: 1, dirty: 1, word0: 0000028d, word1: 00000285, word2: 00000001, word3: 00000281
block 01: tag: 00000, valid: 0, dirty: 0, word0: 00000000, word1: 00000000, word2: 00000000, word3: 00000000
block 10: tag: 11110, valid: 1, dirty: 0, word0: 000001dd, word1: 000003d9, word2: 000003d5, word3: 000003d1
block 11: tag: 01100, valid: 1, dirty: 1, word0: 00000191, word1: 4800ac99, word2: 00000195, word3: 00000dac
Request 10: 
page fault: 0
data read posedge: 4800ac99
contents in TLB: 
block 00: tag: 10, valid: 1, dirty: 0, reference: 01, PPN: 1
block 01: tag:  0, valid: 1, dirty: 0, reference: 00, PPN: 1
block 10: tag:  1, valid: 1, dirty: 0, reference: 11, PPN: 3
block 11: tag:  7, valid: 1, dirty: 0, reference: 10, PPN: 1
contents in cache: 
block 00: tag: 10100, valid: 1, dirty: 1, word0: 0000028d, word1: 00000285, word2: 00000001, word3: 00000281
block 01: tag: 00000, valid: 0, dirty: 0, word0: 00000000, word1: 00000000, word2: 00000000, word3: 00000000
block 10: tag: 11110, valid: 1, dirty: 0, word0: 000001dd, word1: 000001d9, word2: 000001d5, word3: 000003d1
block 11: tag: 01100, valid: 1, dirty: 1, word0: 00000191, word1: 4800ac99, word2: 00000195, word3: 00000dac
Request 11: 
page fault: 0
data read posedge: 00000001
contents in TLB: 
block 00: tag: 10, valid: 1, dirty: 0, reference: 01, PPN: 1
block 01: tag:  0, valid: 1, dirty: 0, reference: 00, PPN: 1
block 10: tag:  4, valid: 1, dirty: 0, reference: 11, PPN: 2
block 11: tag:  7, valid: 1, dirty: 0, reference: 10, PPN: 1
contents in cache: 
block 00: tag: 10100, valid: 1, dirty: 1, word0: 0000028d, word1: 00000285, word2: 00000001, word3: 00000281
block 01: tag: 00000, valid: 0, dirty: 0, word0: 00000000, word1: 00000000, word2: 00000000, word3: 00000000
block 10: tag: 01110, valid: 1, dirty: 0, word0: 000001dd, word1: 000001d9, word2: 000001d5, word3: 000001d1
block 11: tag: 01100, valid: 1, dirty: 1, word0: 00000191, word1: 4800ac99, word2: 00000195, word3: 00000dac
Request 12: 
page fault: 1
data read posedge: 00000001
contents in TLB: 
block 00: tag: 10, valid: 1, dirty: 0, reference: 10, PPN: 1
block 01: tag:  0, valid: 1, dirty: 0, reference: 01, PPN: 1
block 10: tag:  4, valid: 1, dirty: 0, reference: 00, PPN: 2
block 11: tag:  2, valid: 1, dirty: 0, reference: 11, PPN: 0
contents in cache: 
block 00: tag: 10100, valid: 1, dirty: 1, word0: 0000028d, word1: 00000285, word2: 00000001, word3: 00000281
block 01: tag: 00000, valid: 0, dirty: 0, word0: 00000000, word1: 00000000, word2: 00000000, word3: 00000000
block 10: tag: 01110, valid: 1, dirty: 0, word0: 000001dd, word1: 000001d9, word2: 000001d5, word3: 000001d1
block 11: tag: 01100, valid: 1, dirty: 1, word0: 00000191, word1: 4800ac99, word2: 00000195, word3: 00000dac
Request 12: 
page fault: 1
data read posedge: 00000001
contents in TLB: 
block 00: tag: 10, valid: 1, dirty: 0, reference: 10, PPN: 1
block 01: tag:  0, valid: 1, dirty: 0, reference: 01, PPN: 1
block 10: tag:  4, valid: 1, dirty: 0, reference: 00, PPN: 2
block 11: tag:  2, valid: 1, dirty: 0, reference: 11, PPN: 0
contents in cache: 
block 00: tag: 10100, valid: 1, dirty: 1, word0: 0000028d, word1: 00000285, word2: 00000001, word3: 00000281
block 01: tag: 00000, valid: 0, dirty: 0, word0: 00000000, word1: 00000000, word2: 00000000, word3: 00000000
block 10: tag: 01110, valid: 1, dirty: 0, word0: 000001dd, word1: 000001d9, word2: 000001d5, word3: 000001d1
block 11: tag: 01100, valid: 1, dirty: 1, word0: 00000191, word1: 4800ac99, word2: 00000195, word3: 00000dac
Request 12: 
page fault: 1
data read posedge: 00000001
contents in TLB: 
block 00: tag: 10, valid: 1, dirty: 0, reference: 10, PPN: 1
block 01: tag:  0, valid: 1, dirty: 0, reference: 01, PPN: 1
block 10: tag:  4, valid: 1, dirty: 0, reference: 00, PPN: 2
block 11: tag:  2, valid: 1, dirty: 0, reference: 11, PPN: 0
contents in cache: 
block 00: tag: 10100, valid: 1, dirty: 1, word0: 0000028d, word1: 00000285, word2: 00000001, word3: 00000281
block 01: tag: 00000, valid: 0, dirty: 0, word0: 00000000, word1: 00000000, word2: 00000000, word3: 00000000
block 10: tag: 01110, valid: 1, dirty: 0, word0: 000001dd, word1: 000001d9, word2: 000001d5, word3: 000001d1
block 11: tag: 01100, valid: 1, dirty: 1, word0: 00000191, word1: 4800ac99, word2: 00000195, word3: 00000dac
Request 12: 
page fault: 1
data read posedge: 00000001
contents in TLB: 
block 00: tag: 10, valid: 1, dirty: 0, reference: 10, PPN: 1
block 01: tag:  0, valid: 1, dirty: 0, reference: 01, PPN: 1
block 10: tag:  4, valid: 1, dirty: 0, reference: 00, PPN: 2
block 11: tag:  2, valid: 1, dirty: 0, reference: 11, PPN: 0
contents in cache: 
block 00: tag: 10100, valid: 1, dirty: 1, word0: 0000028d, word1: 00000285, word2: 00000001, word3: 00000281
block 01: tag: 00000, valid: 0, dirty: 0, word0: 00000000, word1: 00000000, word2: 00000000, word3: 00000000
block 10: tag: 01110, valid: 1, dirty: 0, word0: 000001dd, word1: 000001d9, word2: 000001d5, word3: 000001d1
block 11: tag: 01100, valid: 1, dirty: 1, word0: 00000000, word1: 00000000, word2: 00000195, word3: 00000dac
Request 12: 
page fault: 1
data read posedge: 00000000
contents in TLB: 
block 00: tag: 10, valid: 1, dirty: 0, reference: 10, PPN: 1
block 01: tag:  0, valid: 1, dirty: 0, reference: 01, PPN: 1
block 10: tag:  4, valid: 1, dirty: 0, reference: 00, PPN: 2
block 11: tag:  2, valid: 1, dirty: 0, reference: 11, PPN: 0
contents in cache: 
block 00: tag: 10100, valid: 1, dirty: 1, word0: 0000028d, word1: 00000285, word2: 00000001, word3: 00000281
block 01: tag: 00000, valid: 0, dirty: 0, word0: 00000000, word1: 00000000, word2: 00000000, word3: 00000000
block 10: tag: 01110, valid: 1, dirty: 0, word0: 000001dd, word1: 000001d9, word2: 000001d5, word3: 000001d1
block 11: tag: 00110, valid: 1, dirty: 0, word0: 00000000, word1: 00000000, word2: 00000000, word3: 00000000
Request 13: 
page fault: 0
data read posedge: 00000000
contents in TLB: 
block 00: tag:  7, valid: 1, dirty: 0, reference: 11, PPN: 1
block 01: tag:  0, valid: 1, dirty: 0, reference: 10, PPN: 1
block 10: tag:  4, valid: 1, dirty: 0, reference: 01, PPN: 2
block 11: tag:  2, valid: 1, dirty: 0, reference: 00, PPN: 0
contents in cache: 
block 00: tag: 10100, valid: 1, dirty: 1, word0: 0000028d, word1: 00000285, word2: 00000001, word3: 00000281
block 01: tag: 00000, valid: 0, dirty: 0, word0: 00000000, word1: 00000000, word2: 00000000, word3: 00000000
block 10: tag: 01110, valid: 1, dirty: 0, word0: 000001dd, word1: 000001d9, word2: 000001d5, word3: 000001d1
block 11: tag: 00110, valid: 1, dirty: 0, word0: 00000000, word1: 00000000, word2: 00000000, word3: 00000000
Request 13: 
page fault: 0
data read posedge: 00000000
contents in TLB: 
block 00: tag:  7, valid: 1, dirty: 0, reference: 11, PPN: 1
block 01: tag:  0, valid: 1, dirty: 0, reference: 10, PPN: 1
block 10: tag:  4, valid: 1, dirty: 0, reference: 01, PPN: 2
block 11: tag:  2, valid: 1, dirty: 0, reference: 00, PPN: 0
contents in cache: 
block 00: tag: 10100, valid: 1, dirty: 1, word0: 0000028d, word1: 00000285, word2: 00000001, word3: 00000281
block 01: tag: 00000, valid: 0, dirty: 0, word0: 00000000, word1: 00000000, word2: 00000000, word3: 00000000
block 10: tag: 01110, valid: 1, dirty: 0, word0: 00000191, word1: 4800ac99, word2: 00000195, word3: 000001d1
